Exploratory Data Analysis
…
# 1
Combined2 %>% mutate(Unemploy_pctile = ntile(Unemploy_Rate, 100)) %>% 
    arrange(Unemploy_pctile)

## # A tibble: 72 x 6
##    Year  President  Unemploy_Rate per_capita_income  avgGDP Unemploy_pctile
##    <chr> <fct>              <dbl>             <dbl>   <dbl>           <int>
##  1 1953  Eisenhower           2.9              1875 3.89e11               1
##  2 1952  Truman               3.2              1800 3.67e11               2
##  3 1948  Truman               3.4              1456 2.74e11               3
##  4 1969  Nixon                3.4              3948 1.02e12               5
##  5 1951  Truman               3.7              1713 3.47e11               6
##  6 1968  LBJ                  3.7              3641 9.41e11               7
##  7 1967  LBJ                  3.9              3350 8.60e11               9
##  8 1970  Nixon                3.9              4218 1.07e12              10
##  9 1956  Eisenhower           4                2068 4.49e11              12
## 10 1966  LBJ                  4                3155 8.13e11              13
## # ... with 62 more rows
…
